{
  "photos": {
    "page": 2,
    "pages": 2,
    "perpage": 20,
    "total": 39,
    "photo": [
      {
        "id": "52575164451",
        "owner": "194632630@N02",
        "secret": "4af9a4cdcf",
        "server": "65535",
        "farm": 66,
        "title": 5,
        "ispublic": 1,
        "isfriend": 0,
        "isfamily": 0
      },
      {
        "id": "52575444529",
        "owner": "104186828@N06",
        "secret": "3948a5dbc2",
        "server": "65535",
        "farm": 66,
        "title": "Winter Flower (January 2019)",
        "ispublic": 1,
        "isfriend": 0,
        "isfamily": 0
      },
      {
        "id": "52575444464",
        "owner": "104186828@N06",
        "secret": "39cbfe3093",
        "server": "65535",
        "farm": 66,
        "title": "Winter Flower (January 2019)",
        "ispublic": 1,
        "isfriend": 0,
        "isfamily": 0
      },
      {
        "id": "52575155466",
        "owner": "194632630@N02",
        "secret": "28f6eb528c",
        "server": "65535",
        "farm": 66,
        "title": 3,
        "ispublic": 1,
        "isfriend": 0,
        "isfamily": 0
      },
      {
        "id": "52575607050",
        "owner": "194416746@N02",
        "secret": "92fe61459a",
        "server": "65535",
        "farm": 66,
        "title": "Flowers like strawberry ice-cream",
        "ispublic": 1,
        "isfriend": 0,
        "isfamily": 0
      },
      {
        "id": "52574684097",
        "owner": "195824408@N07",
        "secret": "1e7bcb2db8",
        "server": "65535",
        "farm": 66,
        "title": "...букет цветов, как странник полунощный",
        "ispublic": 1,
        "isfriend": 0,
        "isfamily": 0
      },
      {
        "id": "52575419834",
        "owner": "144291588@N06",
        "secret": "39e657098b",
        "server": "65535",
        "farm": 66,
        "title": "A \"Keep Fit\" High Street, Clovelly, North Devon, England.",
        "ispublic": 1,
        "isfriend": 0,
        "isfamily": 0
      },
      {
        "id": "52574675197",
        "owner": "144291588@N06",
        "secret": "a2ea23e3e5",
        "server": "65535",
        "farm": 66,
        "title": "View from Old Harry's Rocks to Swanage Bay on the Isle of Purbeck, Dorset, England.",
        "ispublic": 1,
        "isfriend": 0,
        "isfamily": 0
      },
      {
        "id": "52574673862",
        "owner": "197204558@N04",
        "secret": "c0c0ee8d75",
        "server": "65535",
        "farm": 66,
        "title": "stationery-mockup-with-cards-cup-flower",
        "ispublic": 1,
        "isfriend": 0,
        "isfamily": 0
      },
      {
        "id": "52575132461",
        "owner": "103734793@N02",
        "secret": "7c1d33123f",
        "server": "65535",
        "farm": 66,
        "title": "ant world",
        "ispublic": 1,
        "isfriend": 0,
        "isfamily": 0
      },
      {
        "id": "52575411244",
        "owner": "13223305@N07",
        "secret": "d6d037a020",
        "server": "65535",
        "farm": 66,
        "title": "Day 2690. The process of daily rose painting for today.",
        "ispublic": 1,
        "isfriend": 0,
        "isfamily": 0
      },
      {
        "id": "52575652073",
        "owner": "32126965@N07",
        "secret": "84b04a87d3",
        "server": "65535",
        "farm": 66,
        "title": "Orchid  ( Close Up )",
        "ispublic": 1,
        "isfriend": 0,
        "isfamily": 0
      },
      {
        "id": "52575118211",
        "owner": "193378308@N06",
        "secret": "cea8c37484",
        "server": "65535",
        "farm": 66,
        "title": "The rose under sunshine",
        "ispublic": 1,
        "isfriend": 0,
        "isfamily": 0
      },
      {
        "id": "52575398154",
        "owner": "60972191@N00",
        "secret": "aa419a00e7",
        "server": "65535",
        "farm": 66,
        "title": "Brasilaelia tenebrosa (Rolfe) Campacci",
        "ispublic": 1,
        "isfriend": 0,
        "isfamily": 0
      },
      {
        "id": "52575647738",
        "owner": "27844839@N07",
        "secret": "8f110494c1",
        "server": "65535",
        "farm": 66,
        "title": "",
        "ispublic": 1,
        "isfriend": 0,
        "isfamily": 0
      },
      {
        "id": "52575561945",
        "owner": "127788217@N02",
        "secret": "8b5eb1b611",
        "server": "65535",
        "farm": 66,
        "title": "Winter flowers",
        "ispublic": 1,
        "isfriend": 0,
        "isfamily": 0
      },
      {
        "id": "52574647112",
        "owner": "127788217@N02",
        "secret": "13052f0b38",
        "server": "65535",
        "farm": 66,
        "title": "Winter sun",
        "ispublic": 1,
        "isfriend": 0,
        "isfamily": 0
      },
      {
        "id": "52575391099",
        "owner": "127788217@N02",
        "secret": "3e19ffb624",
        "server": "65535",
        "farm": 66,
        "title": "Winter flowers",
        "ispublic": 1,
        "isfriend": 0,
        "isfamily": 0
      },
      {
        "id": "52575379014",
        "owner": "12395214@N08",
        "secret": "a6c7b1b049",
        "server": 0,
        "farm": 0,
        "title": "Cartagena (1)",
        "ispublic": 1,
        "isfriend": 0,
        "isfamily": 0
      }
    ]
  },
  "stat": "ok"
}
