{
  "photos": {
    "page": 1,
    "pages": 2,
    "perpage": 20,
    "total": 39,
    "photo": [
      {
        "id": "52575772888",
        "owner": "192662475@N04",
        "secret": "ef0a8b024e",
        "server": "65535",
        "farm": 66,
        "title": "The one who learned to see",
        "ispublic": 1,
        "isfriend": 0,
        "isfamily": 0
      },
      {
        "id": "52575234776",
        "owner": "127247666@N05",
        "secret": "9e054845a3",
        "server": "65535",
        "farm": 66,
        "title": "Asiatic dayflower",
        "ispublic": 1,
        "isfriend": 0,
        "isfamily": 0
      },
      {
        "id": "52575688480",
        "owner": "127247666@N05",
        "secret": "7fff67d248",
        "server": "65535",
        "farm": 66,
        "title": "Japanese knotweed",
        "ispublic": 1,
        "isfriend": 0,
        "isfamily": 0
      },
      {
        "id": "52575767483",
        "owner": "127247666@N05",
        "secret": "b07df59a05",
        "server": "65535",
        "farm": 66,
        "title": "Hardy begonia",
        "ispublic": 1,
        "isfriend": 0,
        "isfamily": 0
      },
      {
        "id": "52574774047",
        "owner": "127247666@N05",
        "secret": "6630abe5be",
        "server": "65535",
        "farm": 66,
        "title": "Chameleon-plant",
        "ispublic": 1,
        "isfriend": 0,
        "isfamily": 0
      },
      {
        "id": "52575232766",
        "owner": "57522178@N00",
        "secret": "ae4b22d196",
        "server": "65535",
        "farm": 66,
        "title": "Yellow Crane Orchid",
        "ispublic": 1,
        "isfriend": 0,
        "isfamily": 0
      },
      {
        "id": "52574768897",
        "owner": "33252741@N08",
        "secret": "46f58edd18",
        "server": "65535",
        "farm": 66,
        "title": "Illinois National Guard",
        "ispublic": 1,
        "isfriend": 0,
        "isfamily": 0
      },
      {
        "id": "52575683200",
        "owner": "33252741@N08",
        "secret": "c4bc84b196",
        "server": "65535",
        "farm": 66,
        "title": "Illinois National Guard",
        "ispublic": 1,
        "isfriend": 0,
        "isfamily": 0
      },
      {
        "id": "52575503474",
        "owner": "37731954@N06",
        "secret": "07c2ce7194",
        "server": "65535",
        "farm": 66,
        "title": "Yellow Pansies",
        "ispublic": 1,
        "isfriend": 0,
        "isfamily": 0
      },
      {
        "id": "52575753588",
        "owner": "37731954@N06",
        "secret": "c0efea941c",
        "server": "65535",
        "farm": 66,
        "title": "Bright Pink Coneflowers",
        "ispublic": 1,
        "isfriend": 0,
        "isfamily": 0
      },
      {
        "id": "52575474839",
        "owner": "96804954@N00",
        "secret": "67736f4a6b",
        "server": "65535",
        "farm": 66,
        "title": "IMG_9824 Star of Bethlemen 8-14-15",
        "ispublic": 1,
        "isfriend": 0,
        "isfamily": 0
      },
      {
        "id": "52575389514",
        "owner": "12395214@N08",
        "secret": "cab40d31fa",
        "server": "65535",
        "farm": 66,
        "title": "Cartagena (49)",
        "ispublic": 1,
        "isfriend": 0,
        "isfamily": 0
      },
      {
        "id": "52575159981",
        "owner": "19128250@N02",
        "secret": "2f0e428e98",
        "server": "65535",
        "farm": 66,
        "title": "Apple Tree by the Old Shed",
        "ispublic": 1,
        "isfriend": 0,
        "isfamily": 0
      },
      {
        "id": "52575648510",
        "owner": "91324182@N00",
        "secret": "89e9ffec0a",
        "server": "65535",
        "farm": 66,
        "title": "E.T. im Blumenmeer versteckt",
        "ispublic": 1,
        "isfriend": 0,
        "isfamily": 0
      },
      {
        "id": "52575667363",
        "owner": "16105638@N00",
        "secret": "1e147f2eb9",
        "server": "65535",
        "farm": 66,
        "title": "St Nicholas, Ash with Westmarsh, Kent",
        "ispublic": 1,
        "isfriend": 0,
        "isfamily": 0
      },
      {
        "id": "52575667298",
        "owner": "16105638@N00",
        "secret": "b977e2a5fe",
        "server": "65535",
        "farm": 66,
        "title": "St Nicholas, Ash with Westmarsh, Kent",
        "ispublic": 1,
        "isfriend": 0,
        "isfamily": 0
      },
      {
        "id": "52575135346",
        "owner": "16105638@N00",
        "secret": "8a80e8ed12",
        "server": "65535",
        "farm": 66,
        "title": "St Nicholas, Ash with Westmarsh, Kent",
        "ispublic": 1,
        "isfriend": 0,
        "isfamily": 0
      },
      {
        "id": "52575135286",
        "owner": "16105638@N00",
        "secret": "21097d1081",
        "server": "65535",
        "farm": 66,
        "title": "St Nicholas, Ash with Westmarsh, Kent",
        "ispublic": 1,
        "isfriend": 0,
        "isfamily": 0
      },
      {
        "id": "52575667013",
        "owner": "16105638@N00",
        "secret": "9a7201f9fe",
        "server": "65535",
        "farm": 66,
        "title": "St Nicholas, Ash with Westmarsh, Kent",
        "ispublic": 1,
        "isfriend": 0,
        "isfamily": 0
      },
      {
        "id": "52575617365",
        "owner": "194632630@N02",
        "secret": "ef43e2146a",
        "server": "65535",
        "farm": 66,
        "title": 6,
        "ispublic": 1,
        "isfriend": 0,
        "isfamily": 0
      }
    ]
  },
  "stat": "ok"
}
