{
	"photos": {
		"page": 1,
		"pages": 3,
		"perpage": 20,
		"total": 58,
		"photo": [
			{
				"id": "52503897036",
				"owner": "196838257@N04",
				"secret": "3a2773cb92",
				"server": "65535",
				"farm": 66,
				"title": "Cyberpunk Crime Scene",
				"ispublic": 1,
				"isfriend": 0,
				"isfamily": 0
			},
			{
				"id": "52503881106",
				"owner": "49414552@N07",
				"secret": "a67023822e",
				"server": "65535",
				"farm": 66,
				"title": "Oldest car in the world Louwman-museum 3D",
				"ispublic": 1,
				"isfriend": 0,
				"isfamily": 0
			},
			{
				"id": "52504145789",
				"owner": "91044419@N08",
				"secret": "7cf68d7f3c",
				"server": "65535",
				"farm": 66,
				"title": "CAVE CANEM",
				"ispublic": 1,
				"isfriend": 0,
				"isfamily": 0
			},
			{
				"id": "52504145629",
				"owner": "91044419@N08",
				"secret": "3235b4f534",
				"server": "65535",
				"farm": 66,
				"title": "CAVE CANEM",
				"ispublic": 1,
				"isfriend": 0,
				"isfamily": 0
			},
			{
				"id": "52503380727",
				"owner": "91044419@N08",
				"secret": "8c359f9d30",
				"server": "65535",
				"farm": 66,
				"title": "CAVE CANEM",
				"ispublic": 1,
				"isfriend": 0,
				"isfamily": 0
			},
			{
				"id": "52503874946",
				"owner": "91044419@N08",
				"secret": "00f1398cd0",
				"server": "65535",
				"farm": 66,
				"title": "CAVE CANEM",
				"ispublic": 1,
				"isfriend": 0,
				"isfamily": 0
			},
			{
				"id": "52504426563",
				"owner": "91044419@N08",
				"secret": "b985ee6101",
				"server": "65535",
				"farm": 66,
				"title": "CAVE CANEM",
				"ispublic": 1,
				"isfriend": 0,
				"isfamily": 0
			},
			{
				"id": "52504426443",
				"owner": "91044419@N08",
				"secret": "d83e25257a",
				"server": "65535",
				"farm": 66,
				"title": "CAVE CANEM",
				"ispublic": 1,
				"isfriend": 0,
				"isfamily": 0
			},
			{
				"id": "52504350290",
				"owner": "91044419@N08",
				"secret": "f7e9fdb945",
				"server": "65535",
				"farm": 66,
				"title": "CAVE CANEM",
				"ispublic": 1,
				"isfriend": 0,
				"isfamily": 0
			},
			{
				"id": "52503873991",
				"owner": "91044419@N08",
				"secret": "f53e7cb7f7",
				"server": "65535",
				"farm": 66,
				"title": "CAVE CANEM",
				"ispublic": 1,
				"isfriend": 0,
				"isfamily": 0
			},
			{
				"id": "52504425733",
				"owner": "91044419@N08",
				"secret": "b0341cd33c",
				"server": "65535",
				"farm": 66,
				"title": "CAVE CANEM",
				"ispublic": 1,
				"isfriend": 0,
				"isfamily": 0
			},
			{
				"id": "52479699185",
				"owner": "143309057@N05",
				"secret": "5d736d76ee",
				"server": "65535",
				"farm": 66,
				"title": "Felix",
				"ispublic": 1,
				"isfriend": 0,
				"isfamily": 0
			},
			{
				"id": "43812178975",
				"owner": "49729935@N06",
				"secret": "88b8682036",
				"server": "1861",
				"farm": 2,
				"title": "D3014",
				"ispublic": 1,
				"isfriend": 0,
				"isfamily": 0
			},
			{
				"id": "52503374227",
				"owner": "66855284@N03",
				"secret": "1d0197dc22",
				"server": "65535",
				"farm": 66,
				"title": "Queue",
				"ispublic": 1,
				"isfriend": 0,
				"isfamily": 0
			},
			{
				"id": "52503370157",
				"owner": "134678832@N04",
				"secret": "73f1676db3",
				"server": "65535",
				"farm": 66,
				"title": "Comisión de Economía y Presupuestos (Sescam) 16-11-2022",
				"ispublic": 1,
				"isfriend": 0,
				"isfamily": 0
			},
			{
				"id": "52503370097",
				"owner": "134678832@N04",
				"secret": "25de7d83a7",
				"server": "65535",
				"farm": 66,
				"title": "Comisión de Economía y Presupuestos (Sescam) 16-11-2022",
				"ispublic": 1,
				"isfriend": 0,
				"isfamily": 0
			},
			{
				"id": "52503369787",
				"owner": "114204298@N08",
				"secret": "d13cbde949",
				"server": "65535",
				"farm": 66,
				"title": "Vagão GDS 754007-8",
				"ispublic": 1,
				"isfriend": 0,
				"isfamily": 0
			},
			{
				"id": "52503367617",
				"owner": "134678832@N04",
				"secret": "3fbb3c5c2c",
				"server": "65535",
				"farm": 66,
				"title": "Comisión de Economía y Presupuestos (Sescam) 16-11-2022",
				"ispublic": 1,
				"isfriend": 0,
				"isfamily": 0
			},
			{
				"id": "52504132159",
				"owner": "134678832@N04",
				"secret": "5e0ea94ecd",
				"server": "65535",
				"farm": 66,
				"title": "Comisión de Economía y Presupuestos (Sescam) 16-11-2022",
				"ispublic": 1,
				"isfriend": 0,
				"isfamily": 0
			},
			{
				"id": "52503367607",
				"owner": "61606943@N05",
				"secret": "8ae6afcece",
				"server": "65535",
				"farm": 66,
				"title": "Elite & DeLuxe",
				"ispublic": 1,
				"isfriend": 0,
				"isfamily": 0
			}
		]
	},
	"stat": "ok"
}
