{
	"photos": {
		"page": 3,
		"pages": 3,
		"perpage": 20,
		"total": 58,
		"photo": [
			{
				"id": "52503852351",
				"owner": "134678832@N04",
				"secret": "b4e824213d",
				"server": "65535",
				"farm": 66,
				"title": "Comisión de Economía y Presupuestos (Sescam) 16-11-2022",
				"ispublic": 1,
				"isfriend": 0,
				"isfamily": 0
			},
			{
				"id": "52503358887",
				"owner": "134678832@N04",
				"secret": "3a4b556d48",
				"server": "65535",
				"farm": 66,
				"title": "Comisión de Economía y Presupuestos (Sescam) 16-11-2022",
				"ispublic": 1,
				"isfriend": 0,
				"isfamily": 0
			},
			{
				"id": "52504123269",
				"owner": "134678832@N04",
				"secret": "706573a151",
				"server": "65535",
				"farm": 66,
				"title": "Comisión de Economía y Presupuestos (Sescam) 16-11-2022",
				"ispublic": 1,
				"isfriend": 0,
				"isfamily": 0
			},
			{
				"id": "52504328975",
				"owner": "134678832@N04",
				"secret": "2af68c3649",
				"server": "65535",
				"farm": 66,
				"title": "Comisión de Economía y Presupuestos (Sescam) 16-11-2022",
				"ispublic": 1,
				"isfriend": 0,
				"isfamily": 0
			},
			{
				"id": "52504328945",
				"owner": "134678832@N04",
				"secret": "cd90ce9928",
				"server": "65535",
				"farm": 66,
				"title": "Comisión de Economía y Presupuestos (Sescam) 16-11-2022",
				"ispublic": 1,
				"isfriend": 0,
				"isfamily": 0
			},
			{
				"id": "52504328920",
				"owner": "134678832@N04",
				"secret": "802b09e05e",
				"server": "65535",
				"farm": 66,
				"title": "Comisión de Economía y Presupuestos (Sescam) 16-11-2022",
				"ispublic": 1,
				"isfriend": 0,
				"isfamily": 0
			},
			{
				"id": "52504404473",
				"owner": "134678832@N04",
				"secret": "3ac98a0b97",
				"server": "65535",
				"farm": 66,
				"title": "Comisión de Economía y Presupuestos (Sescam) 16-11-2022",
				"ispublic": 1,
				"isfriend": 0,
				"isfamily": 0
			},
			{
				"id": "52504397833",
				"owner": "67962424@N00",
				"secret": "f30332715a",
				"server": "65535",
				"farm": 66,
				"title": "Low riders in Little Italy",
				"ispublic": 1,
				"isfriend": 0,
				"isfamily": 0
			},
			{
				"id": "52503828641",
				"owner": "196261202@N07",
				"secret": "d0a349299d",
				"server": "65535",
				"farm": 66,
				"title": "Get Loan With Low Interest Rate With Car Title Loans Surrey",
				"ispublic": 1,
				"isfriend": 0,
				"isfamily": 0
			},
			{
				"id": "52504378258",
				"owner": "79915417@N08",
				"secret": "29a9224d77",
				"server": "65535",
				"farm": 66,
				"title": "Self portrait inside a car",
				"ispublic": 1,
				"isfriend": 0,
				"isfamily": 0
			},
			{
				"id": "52503823881",
				"owner": "196833271@N04",
				"secret": "bf41be741e",
				"server": "65535",
				"farm": 66,
				"title": "porsche-barrington-porsche-cars-13x13-20221116-1236",
				"ispublic": 1,
				"isfriend": 0,
				"isfamily": 0
			},
			{
				"id": "52504371683",
				"owner": "196833271@N04",
				"secret": "4809148f06",
				"server": "65535",
				"farm": 66,
				"title": "motor-werks-infiniti-infiniti-car-dealership-13x13-20221116-1234",
				"ispublic": 1,
				"isfriend": 0,
				"isfamily": 0
			},
			{
				"id": "52503818276",
				"owner": "196833271@N04",
				"secret": "3f18c16380",
				"server": "65535",
				"farm": 66,
				"title": "bmw-of-barrington-bmw-car-dealer-13x13-20221116-1243",
				"ispublic": 1,
				"isfriend": 0,
				"isfamily": 0
			},
			{
				"id": "52504371268",
				"owner": "196833271@N04",
				"secret": "a1bb463bdc",
				"server": "65535",
				"farm": 66,
				"title": "bmw-of-barrington-bmw-car-dealership-13x13-20221116-1237",
				"ispublic": 1,
				"isfriend": 0,
				"isfamily": 0
			},
			{
				"id": "52504090134",
				"owner": "196833271@N04",
				"secret": "461aabb648",
				"server": "65535",
				"farm": 66,
				"title": "motor-werks-honda-honda-pilot-car-13x13-20221116-1434",
				"ispublic": 1,
				"isfriend": 0,
				"isfamily": 0
			},
			{
				"id": "52504084644",
				"owner": "195464928@N05",
				"secret": "13fb18f148",
				"server": "65535",
				"farm": 66,
				"title": "Cars Fast as Lightning  1.3.4d المال غير محدود",
				"ispublic": 1,
				"isfriend": 0,
				"isfamily": 0
			},
			{
				"id": "52503276752",
				"owner": "196942406@N07",
				"secret": "47ab76c281",
				"server": "65535",
				"farm": 66,
				"title": "luxury cars and tourists in front of monaco casino",
				"ispublic": 1,
				"isfriend": 0,
				"isfamily": 0
			},
			{
				"id": "52504244330",
				"owner": "196942406@N07",
				"secret": "604d949062",
				"server": "65535",
				"farm": 66,
				"title": "luxury cars in front of fabulous monte carlo casino",
				"ispublic": 1,
				"isfriend": 0,
				"isfamily": 0
			}
		]
	},
	"stat": "ok"
}
