{
	"photos": {
		"page": 2,
		"pages": 3,
		"perpage": 20,
		"total": 58,
		"photo": [
			{
				"id": "52504337930",
				"owner": "134678832@N04",
				"secret": "e440006049",
				"server": "65535",
				"farm": 66,
				"title": "Comisión de Economía y Presupuestos (Sescam) 16-11-2022",
				"ispublic": 1,
				"isfriend": 0,
				"isfamily": 0
			},
			{
				"id": "52504337865",
				"owner": "134678832@N04",
				"secret": "fafd8f5813",
				"server": "65535",
				"farm": 66,
				"title": "Comisión de Economía y Presupuestos (Sescam) 16-11-2022",
				"ispublic": 1,
				"isfriend": 0,
				"isfamily": 0
			},
			{
				"id": "52503861241",
				"owner": "134678832@N04",
				"secret": "164c1c3446",
				"server": "65535",
				"farm": 66,
				"title": "Comisión de Economía y Presupuestos (Sescam) 16-11-2022",
				"ispublic": 1,
				"isfriend": 0,
				"isfamily": 0
			},
			{
				"id": "52503367337",
				"owner": "134678832@N04",
				"secret": "a092168f6d",
				"server": "65535",
				"farm": 66,
				"title": "Comisión de Economía y Presupuestos (Sescam) 16-11-2022",
				"ispublic": 1,
				"isfriend": 0,
				"isfamily": 0
			},
			{
				"id": "52503856931",
				"owner": "38882310@N08",
				"secret": "fbb5e077e4",
				"server": "65535",
				"farm": 66,
				"title": "Bowser Jr Clown Car",
				"ispublic": 1,
				"isfriend": 0,
				"isfamily": 0
			},
			{
				"id": "52503362882",
				"owner": "31825481@N00",
				"secret": "efac44290a",
				"server": "65535",
				"farm": 66,
				"title": "Team 137 - 1966 Chevrolet Impala convertible",
				"ispublic": 1,
				"isfriend": 0,
				"isfamily": 0
			},
			{
				"id": "52504124184",
				"owner": "134678832@N04",
				"secret": "29ae6ba15a",
				"server": "65535",
				"farm": 66,
				"title": "Comisión de Economía y Presupuestos (Sescam) 16-11-2022",
				"ispublic": 1,
				"isfriend": 0,
				"isfamily": 0
			},
			{
				"id": "52503359807",
				"owner": "134678832@N04",
				"secret": "de6e2508d1",
				"server": "65535",
				"farm": 66,
				"title": "Comisión de Economía y Presupuestos (Sescam) 16-11-2022",
				"ispublic": 1,
				"isfriend": 0,
				"isfamily": 0
			},
			{
				"id": "52504329885",
				"owner": "134678832@N04",
				"secret": "3fc4ca3664",
				"server": "65535",
				"farm": 66,
				"title": "Comisión de Economía y Presupuestos (Sescam) 16-11-2022",
				"ispublic": 1,
				"isfriend": 0,
				"isfamily": 0
			},
			{
				"id": "52504329860",
				"owner": "134678832@N04",
				"secret": "b49740019f",
				"server": "65535",
				"farm": 66,
				"title": "Comisión de Economía y Presupuestos (Sescam) 16-11-2022",
				"ispublic": 1,
				"isfriend": 0,
				"isfamily": 0
			},
			{
				"id": "52503853001",
				"owner": "134678832@N04",
				"secret": "72aa3c2ee1",
				"server": "65535",
				"farm": 66,
				"title": "Comisión de Economía y Presupuestos (Sescam) 16-11-2022",
				"ispublic": 1,
				"isfriend": 0,
				"isfamily": 0
			},
			{
				"id": "52503359512",
				"owner": "134678832@N04",
				"secret": "4ae8172bba",
				"server": "65535",
				"farm": 66,
				"title": "Comisión de Economía y Presupuestos (Sescam) 16-11-2022",
				"ispublic": 1,
				"isfriend": 0,
				"isfamily": 0
			},
			{
				"id": "52503359327",
				"owner": "134678832@N04",
				"secret": "6b75b79b21",
				"server": "65535",
				"farm": 66,
				"title": "Comisión de Economía y Presupuestos (Sescam) 16-11-2022",
				"ispublic": 1,
				"isfriend": 0,
				"isfamily": 0
			},
			{
				"id": "52504405138",
				"owner": "134678832@N04",
				"secret": "68d04de2d3",
				"server": "65535",
				"farm": 66,
				"title": "Comisión de Economía y Presupuestos (Sescam) 16-11-2022",
				"ispublic": 1,
				"isfriend": 0,
				"isfamily": 0
			},
			{
				"id": "52503852651",
				"owner": "134678832@N04",
				"secret": "db5eb1d007",
				"server": "65535",
				"farm": 66,
				"title": "Comisión de Economía y Presupuestos (Sescam) 16-11-2022",
				"ispublic": 1,
				"isfriend": 0,
				"isfamily": 0
			},
			{
				"id": "52504123599",
				"owner": "134678832@N04",
				"secret": "8c612f307b",
				"server": "65535",
				"farm": 66,
				"title": "Comisión de Economía y Presupuestos (Sescam) 16-11-2022",
				"ispublic": 1,
				"isfriend": 0,
				"isfamily": 0
			},
			{
				"id": "52503852576",
				"owner": "134678832@N04",
				"secret": "3eaaf05185",
				"server": "65535",
				"farm": 66,
				"title": "Comisión de Economía y Presupuestos (Sescam) 16-11-2022",
				"ispublic": 1,
				"isfriend": 0,
				"isfamily": 0
			},
			{
				"id": "52503359107",
				"owner": "134678832@N04",
				"secret": "27d9ab5a13",
				"server": "65535",
				"farm": 66,
				"title": "Comisión de Economía y Presupuestos (Sescam) 16-11-2022",
				"ispublic": 1,
				"isfriend": 0,
				"isfamily": 0
			},
			{
				"id": "52504329335",
				"owner": "134678832@N04",
				"secret": "eda30c8a45",
				"server": "65535",
				"farm": 66,
				"title": "Comisión de Economía y Presupuestos (Sescam) 16-11-2022",
				"ispublic": 1,
				"isfriend": 0,
				"isfamily": 0
			},
			{
				"id": "52504123369",
				"owner": "134678832@N04",
				"secret": "3e3d54cfe1",
				"server": "65535",
				"farm": 66,
				"title": "Comisión de Economía y Presupuestos (Sescam) 16-11-2022",
				"ispublic": 1,
				"isfriend": 0,
				"isfamily": 0
			}
		]
	},
	"stat": "ok"
}
