{
  "photos": {
    "page": 3,
    "pages": 3,
    "perpage": 20,
    "total": 58,
    "photo": [
      {
        "id": "52571776264",
        "owner": "193154458@N08",
        "secret": "f703ba7030",
        "server": "65535",
        "farm": 66,
        "title": "CITPD-21-08-22_321",
        "ispublic": 1,
        "isfriend": 0,
        "isfamily": 0
      },
      {
        "id": "52571031802",
        "owner": "193154458@N08",
        "secret": "12e5455021",
        "server": "65535",
        "farm": 66,
        "title": "CITPD-21-08-22_320",
        "ispublic": 1,
        "isfriend": 0,
        "isfamily": 0
      },
      {
        "id": "52572026308",
        "owner": "193154458@N08",
        "secret": "25c4b701a5",
        "server": "65535",
        "farm": 66,
        "title": "CITPD-21-08-22_319",
        "ispublic": 1,
        "isfriend": 0,
        "isfamily": 0
      },
      {
        "id": "52571944745",
        "owner": "193154458@N08",
        "secret": "31a987e9c7",
        "server": "65535",
        "farm": 66,
        "title": "CITPD-21-08-22_318",
        "ispublic": 1,
        "isfriend": 0,
        "isfamily": 0
      },
      {
        "id": "52571770729",
        "owner": "193154458@N08",
        "secret": "1204ccbfaf",
        "server": "65535",
        "farm": 66,
        "title": "CITPD-21-08-22_317",
        "ispublic": 1,
        "isfriend": 0,
        "isfamily": 0
      },
      {
        "id": "52571491746",
        "owner": "193154458@N08",
        "secret": "3ec409a603",
        "server": "65535",
        "farm": 66,
        "title": "CITPD-21-08-22_316",
        "ispublic": 1,
        "isfriend": 0,
        "isfamily": 0
      },
      {
        "id": "52571518694",
        "owner": "193154458@N08",
        "secret": "0e4529398d",
        "server": "65535",
        "farm": 66,
        "title": "CITPD-21-08-22_087",
        "ispublic": 1,
        "isfriend": 0,
        "isfamily": 0
      },
      {
        "id": "52571670685",
        "owner": "193154458@N08",
        "secret": "374f49366e",
        "server": "65535",
        "farm": 66,
        "title": "CITPD-21-08-22_066",
        "ispublic": 1,
        "isfriend": 0,
        "isfamily": 0
      },
      {
        "id": "52571669775",
        "owner": "193154458@N08",
        "secret": "edc2c715e3",
        "server": "65535",
        "farm": 66,
        "title": "CITPD-21-08-22_065",
        "ispublic": 1,
        "isfriend": 0,
        "isfamily": 0
      },
      {
        "id": "52571668990",
        "owner": "193154458@N08",
        "secret": "8cb2dedab3",
        "server": "65535",
        "farm": 66,
        "title": "CITPD-21-08-22_064",
        "ispublic": 1,
        "isfriend": 0,
        "isfamily": 0
      },
      {
        "id": "52571218086",
        "owner": "193154458@N08",
        "secret": "e3c729de1d",
        "server": "65535",
        "farm": 66,
        "title": "CITPD-21-08-22_063",
        "ispublic": 1,
        "isfriend": 0,
        "isfamily": 0
      },
      {
        "id": "52571667500",
        "owner": "193154458@N08",
        "secret": "380b4a1fe2",
        "server": "65535",
        "farm": 66,
        "title": "CITPD-21-08-22_062",
        "ispublic": 1,
        "isfriend": 0,
        "isfamily": 0
      },
      {
        "id": "52570750467",
        "owner": "193154458@N08",
        "secret": "abbb0e9971",
        "server": "65535",
        "farm": 66,
        "title": "CITPD-21-08-22_061",
        "ispublic": 1,
        "isfriend": 0,
        "isfamily": 0
      },
      {
        "id": "52571763624",
        "owner": "71083651@N00",
        "secret": "684b8bbb00",
        "server": "65535",
        "farm": 66,
        "title": "Ferrari stripe",
        "ispublic": 1,
        "isfriend": 0,
        "isfamily": 0
      },
      {
        "id": "52571019697",
        "owner": "71083651@N00",
        "secret": "4204677f56",
        "server": "65535",
        "farm": 66,
        "title": "Racing stripes",
        "ispublic": 1,
        "isfriend": 0,
        "isfamily": 0
      },
      {
        "id": "52571934960",
        "owner": "71083651@N00",
        "secret": "2856b8dc33",
        "server": "65535",
        "farm": 66,
        "title": "lads",
        "ispublic": 1,
        "isfriend": 0,
        "isfamily": 0
      },
      {
        "id": "52571484786",
        "owner": "71083651@N00",
        "secret": "7578f6a129",
        "server": "65535",
        "farm": 66,
        "title": "peugeot at rest",
        "ispublic": 1,
        "isfriend": 0,
        "isfamily": 0
      },
      {
        "id": "52572014218",
        "owner": "71083651@N00",
        "secret": "cf71992281",
        "server": "65535",
        "farm": 66,
        "title": "Jagermaifter orange",
        "ispublic": 1,
        "isfriend": 0,
        "isfamily": 0
      }
    ]
  },
  "stat": "ok"
}
