{
  "photos": {
    "page": 1,
    "pages": 3,
    "perpage": 20,
    "total": 58,
    "photo": [
      {
        "id": "52575640580",
        "owner": "197142374@N03",
        "secret": "15514a4310",
        "server": "65535",
        "farm": 66,
        "title": "Flat Near Me",
        "ispublic": 1,
        "isfriend": 0,
        "isfamily": 0
      },
      {
        "id": "52575327968",
        "owner": "27665395@N05",
        "secret": "703ffef504",
        "server": "65535",
        "farm": 66,
        "title": "Porsche 718",
        "ispublic": 1,
        "isfriend": 0,
        "isfamily": 0
      },
      {
        "id": "52574243962",
        "owner": "197140497@N03",
        "secret": "f5ed9dfb4d",
        "server": "65535",
        "farm": 66,
        "title": "Global Crossover Vehicles Market",
        "ispublic": 1,
        "isfriend": 0,
        "isfamily": 0
      },
      {
        "id": "52575139593",
        "owner": "36653703@N06",
        "secret": "9cc1b0c7d4",
        "server": "65535",
        "farm": 66,
        "title": "041 - 24- FRA - EZ-967-FS - Carlos Martins - POR",
        "ispublic": 1,
        "isfriend": 0,
        "isfamily": 0
      },
      {
        "id": "52574994095",
        "owner": "190474469@N02",
        "secret": "b0bf2b9c74",
        "server": "65535",
        "farm": 66,
        "title": "guess who's coming for dinner tonight",
        "ispublic": 1,
        "isfriend": 0,
        "isfamily": 0
      },
      {
        "id": "52574385694",
        "owner": "30279041@N04",
        "secret": "22a250ff1f",
        "server": "65535",
        "farm": 66,
        "title": "Aston Martin DB2 Sports Saloon Coupé (1953)",
        "ispublic": 1,
        "isfriend": 0,
        "isfamily": 0
      },
      {
        "id": "52574636773",
        "owner": "30279041@N04",
        "secret": "69579ab0cd",
        "server": "65535",
        "farm": 66,
        "title": "Aston Martin DB2 Sports Saloon Coupé (1953)",
        "ispublic": 1,
        "isfriend": 0,
        "isfamily": 0
      },
      {
        "id": "52573037202",
        "owner": "130542797@N07",
        "secret": "496d846771",
        "server": "65535",
        "farm": 66,
        "title": "Volkswagen EOS TDi KV07CPT",
        "ispublic": 1,
        "isfriend": 0,
        "isfamily": 0
      },
      {
        "id": "52573566984",
        "owner": "31825481@N00",
        "secret": "b485ff7ccb",
        "server": "65535",
        "farm": 66,
        "title": "Passing the Puck",
        "ispublic": 1,
        "isfriend": 0,
        "isfamily": 0
      },
      {
        "id": "52573130324",
        "owner": "196551265@N07",
        "secret": "d843ea1bfd",
        "server": "65535",
        "farm": 66,
        "title": "How to Choose the Perfect Wedding Car for Your Big Day",
        "ispublic": 1,
        "isfriend": 0,
        "isfamily": 0
      },
      {
        "id": "52573279950",
        "owner": "197205410@N08",
        "secret": "e473b9cbb0",
        "server": "65535",
        "farm": 66,
        "title": "The Mazda Miata Rx7: A Sports Car For The Everyday Driver",
        "ispublic": 1,
        "isfriend": 0,
        "isfamily": 0
      },
      {
        "id": "52573084979",
        "owner": "64045479@N05",
        "secret": "d6ec5891eb",
        "server": "65535",
        "farm": 66,
        "title": "1980 Aston Martin V8 Vantage",
        "ispublic": 1,
        "isfriend": 0,
        "isfamily": 0
      },
      {
        "id": "52572811011",
        "owner": "64045479@N05",
        "secret": "08c3d7e4b6",
        "server": "65535",
        "farm": 66,
        "title": "1934 MG PA 2-seat Sports",
        "ispublic": 1,
        "isfriend": 0,
        "isfamily": 0
      },
      {
        "id": "52573270808",
        "owner": "185061435@N06",
        "secret": "db4d52a10e",
        "server": "65535",
        "farm": 66,
        "title": "A muscle car parked on Gammeltorv",
        "ispublic": 1,
        "isfriend": 0,
        "isfamily": 0
      },
      {
        "id": "52573254723",
        "owner": "185061435@N06",
        "secret": "8083882e10",
        "server": "65535",
        "farm": 66,
        "title": "Front view of a Porsche 911 Carrera 4S in Milan",
        "ispublic": 1,
        "isfriend": 0,
        "isfamily": 0
      },
      {
        "id": "52572929140",
        "owner": "62841817@N05",
        "secret": "f1a01962fb",
        "server": "65535",
        "farm": 66,
        "title": "AR SZ 20221124 02",
        "ispublic": 1,
        "isfriend": 0,
        "isfamily": 0
      },
      {
        "id": "52571556392",
        "owner": "32132568@N06",
        "secret": "db16686c8e",
        "server": "65535",
        "farm": 66,
        "title": "Jaguar E-Type, Manchester-by-the-Sea, Massachusetts, United States",
        "ispublic": 1,
        "isfriend": 0,
        "isfamily": 0
      },
      {
        "id": "52571241062",
        "owner": "70626467@N00",
        "secret": "a1d0ee0668",
        "server": "65535",
        "farm": 66,
        "title": "Black Ford Mustang Shelby GT350",
        "ispublic": 1,
        "isfriend": 0,
        "isfamily": 0
      },
      {
        "id": "52572153430",
        "owner": "70626467@N00",
        "secret": "d6b509a716",
        "server": "65535",
        "farm": 66,
        "title": "SIlver Blue Chrysler Crossfire",
        "ispublic": 1,
        "isfriend": 0,
        "isfamily": 0
      },
      {
        "id": "52572055618",
        "owner": "193154458@N08",
        "secret": "b2f35715fd",
        "server": "65535",
        "farm": 66,
        "title": "CITPD-21-08-22_347",
        "ispublic": 1,
        "isfriend": 0,
        "isfamily": 0
      }
    ]
  },
  "stat": "ok"
}
